<?xml version="1.0" encoding="utf-8"?>
<!-- Generator: Adobe Illustrator 17.0.0, SVG Export Plug-In . SVG Version: 6.00 Build 0)  -->
<!DOCTYPE svg PUBLIC "-//W3C//DTD SVG 1.1//EN" "http://www.w3.org/Graphics/SVG/1.1/DTD/svg11.dtd">
 <svg enable-background="new 0 0 512 512" version="1.1" viewBox="0 0 512 512" xml:space="preserve" xmlns="http://www.w3.org/2000/svg">
		<g>
			<path d="m469.33 21.333h-426.67c-23.521 0-42.667 19.136-42.667 42.667v298.67c0 23.531 19.146 42.667 42.667 42.667h149.38c-0.448 17.018-3.698 44.24-15.902 57.094-4.479 4.708-9.604 6.906-16.146 6.906-5.896 0-10.667 4.771-10.667 10.667s4.771 10.667 10.667 10.667h192c5.896 0 10.667-4.771 10.667-10.667s-4.771-10.667-10.667-10.667c-6.542 0-11.667-2.188-16.125-6.896-12.174-12.79-15.445-40.051-15.91-57.104h149.37c23.521 0 42.667-19.135 42.667-42.667v-298.67c-1e-3 -23.531-19.147-42.667-42.668-42.667zm-271.6 448c12.874-19.749 15.375-48.188 15.694-64h85.155c0.319 15.813 2.819 44.251 15.693 64h-116.54zm292.94-106.67c0 11.76-9.563 21.333-21.333 21.333h-426.67c-11.771 0-21.333-9.573-21.333-21.333v-42.667h469.33v42.667zm0-64h-469.33v-234.67c0-11.76 9.563-21.333 21.333-21.333h426.67c11.771 0 21.333 9.573 21.333 21.333v234.67z"/>
			<circle cx="256" cy="352" r="21.333"/>
			<path d="m160 85.333h-85.333c-5.896 0-10.667 4.771-10.667 10.667v64c0 5.896 4.771 10.667 10.667 10.667h85.333c5.896 0 10.667-4.771 10.667-10.667v-64c0-5.896-4.771-10.667-10.667-10.667zm-10.667 64h-64v-42.667h64v42.667z"/>
			<path d="m298.67 85.333h-85.333c-5.896 0-10.667 4.771-10.667 10.667v64c0 5.896 4.771 10.667 10.667 10.667h85.333c5.896 0 10.667-4.771 10.667-10.667v-64c-1e-3 -5.896-4.771-10.667-10.667-10.667zm-10.667 64h-64v-42.667h64v42.667z"/>
			<path d="m437.33 85.333h-85.333c-5.896 0-10.667 4.771-10.667 10.667v64c0 5.896 4.771 10.667 10.667 10.667h85.333c5.896 0 10.667-4.771 10.667-10.667v-64c0-5.896-4.771-10.667-10.667-10.667zm-10.666 64h-64v-42.667h64v42.667z"/>
			<path d="M160,192H74.667C68.771,192,64,196.771,64,202.667v64c0,5.896,4.771,10.667,10.667,10.667H160     c5.896,0,10.667-4.771,10.667-10.667v-64C170.667,196.771,165.896,192,160,192z M149.333,256h-64v-42.667h64V256z"/>
			<path d="m298.67 192h-85.333c-5.896 0-10.667 4.771-10.667 10.667v64c0 5.896 4.771 10.667 10.667 10.667h85.333c5.896 0 10.667-4.771 10.667-10.667v-64c-1e-3 -5.896-4.771-10.667-10.667-10.667zm-10.667 64h-64v-42.667h64v42.667z"/>
			<path d="m437.33 192h-85.333c-5.896 0-10.667 4.771-10.667 10.667v64c0 5.896 4.771 10.667 10.667 10.667h85.333c5.896 0 10.667-4.771 10.667-10.667v-64c0-5.896-4.771-10.667-10.667-10.667zm-10.666 64h-64v-42.667h64v42.667z"/>
		</g>
		</svg>